{
    "movimiento": {
        "checkpoints": [
            {
                "steps": 499947,
                "file_path": "results\\entrenamiento2\\movimiento\\movimiento-499947.onnx",
                "reward": null,
                "creation_time": 1616946325.100124
            },
            {
                "steps": 999994,
                "file_path": "results\\entrenamiento2\\movimiento\\movimiento-999994.onnx",
                "reward": null,
                "creation_time": 1616946888.3094835
            },
            {
                "steps": 1499937,
                "file_path": "results\\entrenamiento2\\movimiento\\movimiento-1499937.onnx",
                "reward": 6986.85968875885,
                "creation_time": 1616947404.9699168
            },
            {
                "steps": 1999981,
                "file_path": "results\\entrenamiento2\\movimiento\\movimiento-1999981.onnx",
                "reward": null,
                "creation_time": 1616947915.1421013
            },
            {
                "steps": 2001197,
                "file_path": "results\\entrenamiento2\\movimiento\\movimiento-2001197.onnx",
                "reward": null,
                "creation_time": 1616947915.40223
            }
        ],
        "final_checkpoint": {
            "steps": 2001197,
            "file_path": "results\\entrenamiento2\\movimiento.onnx",
            "reward": null,
            "creation_time": 1616947915.40223
        }
    },
    "metadata": {
        "stats_format_version": "0.2.0",
        "mlagents_version": "0.25.0",
        "torch_version": "1.8.0+cpu"
    }
}